%YAML 1.1
%TAG !u! tag:unity3d.com,2011:
--- !u!1045 &1
EditorBuildSettings:
  m_ObjectHideFlags: 0
  serializedVersion: 2
  m_Scenes:
  - enabled: 1
    path: Assets/AxieInfinity/AxieMixerUnity/Demo/0. Loading Screen/Loading.unity
    guid: e9ede3c3dfc7148409d176224d6293ba
  - enabled: 1
    path: Assets/AxieInfinity/AxieMixerUnity/Demo/1. Basic/DemoMixer.unity
    guid: 2cda990e2423bbf4892e6590ba056729
  - enabled: 1
    path: Assets/AxieInfinity/AxieMixerUnity/Demo/2. Flappy Axie/FlappyAxie.unity
    guid: 3e62be8942ba54570a24aa9cc83af773
  - enabled: 1
    path: Assets/Scenes/battelle.unity
    guid: 3ed5e6202a843c341a7a0a7f51101ed8
  m_configObjects: {}
